G04 #@! TF.GenerationSoftware,KiCad,Pcbnew,(5.0.0-3-g5ebb6b6)*
G04 #@! TF.CreationDate,2019-04-08T21:46:59+02:00*
G04 #@! TF.ProjectId,sensor,73656E736F722E6B696361645F706362,rev?*
G04 #@! TF.SameCoordinates,Original*
G04 #@! TF.FileFunction,Other,User*
%FSLAX46Y46*%
G04 Gerber Fmt 4.6, Leading zero omitted, Abs format (unit mm)*
G04 Created by KiCad (PCBNEW (5.0.0-3-g5ebb6b6)) date Monday, 08. April 2019 um 21:46:59*
%MOMM*%
%LPD*%
G01*
G04 APERTURE LIST*
%ADD10C,0.050000*%
G04 APERTURE END LIST*
D10*
G04 #@! TO.C,BZ1*
X81818809Y-95774461D02*
G75*
G03X81818809Y-95774461I-6250001J0D01*
G01*
G04 #@! TO.C,C1*
X89590000Y-105730000D02*
X89590000Y-107630000D01*
X89590000Y-107630000D02*
X93290000Y-107630000D01*
X93290000Y-107630000D02*
X93290000Y-105730000D01*
X93290000Y-105730000D02*
X89590000Y-105730000D01*
G04 #@! TO.C,C2*
X118550000Y-98150000D02*
X118550000Y-101850000D01*
X120450000Y-98150000D02*
X118550000Y-98150000D01*
X120450000Y-101850000D02*
X120450000Y-98150000D01*
X118550000Y-101850000D02*
X120450000Y-101850000D01*
G04 #@! TO.C,D1*
X105032346Y-71378207D02*
X107361738Y-77446480D01*
X107361738Y-77446480D02*
X101340144Y-79757953D01*
X101340144Y-79757953D02*
X99010752Y-73689680D01*
X99010752Y-73689680D02*
X105032346Y-71378207D01*
G04 #@! TO.C,R1*
X105860000Y-122110000D02*
X103960000Y-122110000D01*
X103960000Y-122110000D02*
X103960000Y-125810000D01*
X103960000Y-125810000D02*
X105860000Y-125810000D01*
X105860000Y-125810000D02*
X105860000Y-122110000D01*
G04 #@! TO.C,R2*
X106100000Y-70800000D02*
X109800000Y-70800000D01*
X106100000Y-68900000D02*
X106100000Y-70800000D01*
X109800000Y-68900000D02*
X106100000Y-68900000D01*
X109800000Y-70800000D02*
X109800000Y-68900000D01*
G04 #@! TO.C,R3*
X93290000Y-100650000D02*
X89590000Y-100650000D01*
X93290000Y-102550000D02*
X93290000Y-100650000D01*
X89590000Y-102550000D02*
X93290000Y-102550000D01*
X89590000Y-100650000D02*
X89590000Y-102550000D01*
G04 #@! TO.C,R4*
X107370000Y-110810000D02*
X107370000Y-112710000D01*
X107370000Y-112710000D02*
X111070000Y-112710000D01*
X111070000Y-112710000D02*
X111070000Y-110810000D01*
X111070000Y-110810000D02*
X107370000Y-110810000D01*
G04 #@! TO.C,R5*
X104585000Y-116520000D02*
X108285000Y-116520000D01*
X104585000Y-114620000D02*
X104585000Y-116520000D01*
X108285000Y-114620000D02*
X104585000Y-114620000D01*
X108285000Y-116520000D02*
X108285000Y-114620000D01*
G04 #@! TO.C,R6*
X114950000Y-100150000D02*
X113050000Y-100150000D01*
X113050000Y-100150000D02*
X113050000Y-103850000D01*
X113050000Y-103850000D02*
X114950000Y-103850000D01*
X114950000Y-103850000D02*
X114950000Y-100150000D01*
G04 #@! TO.C,R7*
X97475000Y-125040000D02*
X99375000Y-125040000D01*
X99375000Y-125040000D02*
X99375000Y-121340000D01*
X99375000Y-121340000D02*
X97475000Y-121340000D01*
X97475000Y-121340000D02*
X97475000Y-125040000D01*
G04 #@! TO.C,RV1*
X116280000Y-120540000D02*
X116280000Y-125840000D01*
X116280000Y-125840000D02*
X109780000Y-125840000D01*
X109780000Y-125840000D02*
X109780000Y-120540000D01*
X109780000Y-120540000D02*
X116280000Y-120540000D01*
G04 #@! TO.C,U1*
X106510000Y-97510000D02*
X106510000Y-108210000D01*
X106510000Y-108210000D02*
X96710000Y-108210000D01*
X96710000Y-108210000D02*
X96710000Y-97510000D01*
X96710000Y-97510000D02*
X106510000Y-97510000D01*
G04 #@! TD*
M02*
