M48
;DRILL file {KiCad (5.0.0-3-g5ebb6b6)} date Monday, 08. April 2019 um 21:47:07
;FORMAT={-:-/ absolute / inch / decimal}
FMAT,2
INCH,TZ
T1C0.0157
T2C0.0315
T3C0.0354
T4C0.0390
T5C0.0394
%
G90
G05
M72
T1
X3.3465Y-3.7402
X3.4252Y-3.6614
X3.563Y-4.1339
X3.598Y-4.3504
X3.6024Y-5.0984
X3.622Y-3.937
X3.6614Y-2.9504
X3.6614Y-2.9996
X3.6614Y-3.9124
X3.6614Y-3.9124
X3.7795Y-3.9764
X3.937Y-4.0551
X3.9764Y-4.5276
X4.0157Y-2.5591
X4.0551Y-4.0157
X4.113Y-2.5837
X4.1339Y-2.4409
X4.2126Y-2.4409
X4.2126Y-4.1339
X4.2126Y-4.4488
X4.2323Y-4.0748
X4.2913Y-3.9567
X4.2913Y-4.8425
X4.3504Y-5.0984
X4.3701Y-3.5039
X4.3898Y-3.5827
T2
X3.85Y-3.9
X3.85Y-4.
X3.85Y-4.1
X3.85Y-4.2
X4.15Y-3.9
X4.15Y-4.
X4.15Y-4.1
X4.15Y-4.2
T3
X4.016Y-2.993
X4.1093Y-2.9571
T4
X3.5593Y-4.6961
X3.6873Y-4.4744
X3.7127Y-4.7846
X3.8407Y-4.563
T5
X2.9492Y-3.6233
X3.0011Y-3.918
T0
M30
